arm/arm.sim/sim_1/behav/xsim/simulate.log
Time resolution is 1 ps
WARNING: File kernel.mem referenced from process on C:/vivado/arm.xpr/arm/arm.srcs/sources_1/new/conv_weights.v at line 29 cannot be opened for reading. Please ensure that this file is available in the current working directory or parent directory of xsim.dir location specified via -xsimdir switch.
Time=5000 | p0=0 p1=0 p2=0 p3=0 p4=0 p5=0 p6=0 p7=0 p8=0 | result=0
Time=15000 | p0=0 p1=0 p2=0 p3=0 p4=0 p5=0 p6=0 p7=0 p8=0 | result=0
Time=25000 | p0=0 p1=0 p2=0 p3=0 p4=0 p5=0 p6=0 p7=0 p8=0 | result=0
Time=35000 | p0=0 p1=0 p2=0 p3=0 p4=0 p5=0 p6=0 p7=0 p8=0 | result=0
Time=45000 | p0=0 p1=0 p2=0 p3=0 p4=0 p5=0 p6=0 p7=0 p8=0 | result=0
Time=55000 | p0=0 p1=0 p2=0 p3=0 p4=0 p5=0 p6=0 p7=0 p8=0 | result=0
Time=65000 | p0=0 p1=0 p2=0 p3=0 p4=0 p5=0 p6=0 p7=0 p8=0 | result=0
Time=75000 | p0=2 p1=0 p2=0 p3=0 p4=0 p5=0 p6=0 p7=0 p8=0 | result=0
Time=85000 | p0=3 p1=2 p2=0 p3=0 p4=0 p5=0 p6=0 p7=0 p8=0 | result=0
Time=95000 | p0=4 p1=3 p2=2 p3=0 p4=0 p5=0 p6=0 p7=0 p8=0 | result=0
Time=105000 | p0=5 p1=4 p2=3 p3=2 p4=0 p5=0 p6=0 p7=0 p8=0 | result=0
Time=115000 | p0=6 p1=5 p2=4 p3=3 p4=2 p5=0 p6=0 p7=0 p8=0 | result=0
Time=125000 | p0=7 p1=6 p2=5 p3=4 p4=3 p5=2 p6=0 p7=0 p8=0 | result=0
Time=135000 | p0=8 p1=7 p2=6 p3=5 p4=4 p5=3 p6=2 p7=0 p8=0 | result=0
Time=145000 | p0=9 p1=8 p2=7 p3=6 p4=5 p5=4 p6=3 p7=2 p8=0 | result=0
Time=155000 | p0=10 p1=9 p2=8 p3=7 p4=6 p5=5 p6=4 p7=3 p8=2 | result=0
Time=165000 | p0=11 p1=10 p2=9 p3=8 p4=7 p5=6 p6=5 p7=4 p8=3 | result=0
Time=175000 | p0=12 p1=11 p2=10 p3=9 p4=8 p5=7 p6=6 p7=5 p8=4 | result=x
Time=185000 | p0=13 p1=12 p2=11 p3=10 p4=9 p5=8 p6=7 p7=6 p8=5 | result=x
Time=195000 | p0=14 p1=13 p2=12 p3=11 p4=10 p5=9 p6=8 p7=7 p8=6 | result=x
Time=205000 | p0=15 p1=14 p2=13 p3=12 p4=11 p5=10 p6=9 p7=8 p8=7 | result=x
Time=215000 | p0=16 p1=15 p2=14 p3=13 p4=12 p5=11 p6=10 p7=9 p8=8 | result=x
Time=225000 | p0=17 p1=16 p2=15 p3=14 p4=13 p5=12 p6=11 p7=10 p8=9 | result=x
Time=235000 | p0=18 p1=17 p2=16 p3=15 p4=14 p5=13 p6=12 p7=11 p8=10 | result=x
Time=245000 | p0=19 p1=18 p2=17 p3=16 p4=15 p5=14 p6=13 p7=12 p8=11 | result=x
Time=255000 | p0=20 p1=19 p2=18 p3=17 p4=16 p5=15 p6=14 p7=13 p8=12 | result=x
Time=265000 | p0=21 p1=20 p2=19 p3=18 p4=17 p5=16 p6=15 p7=14 p8=13 | result=x
Time=275000 | p0=22 p1=21 p2=20 p3=19 p4=18 p5=17 p6=16 p7=15 p8=14 | result=x
Time=285000 | p0=23 p1=22 p2=21 p3=20 p4=19 p5=18 p6=17 p7=16 p8=15 | result=x
Time=295000 | p0=24 p1=23 p2=22 p3=21 p4=20 p5=19 p6=18 p7=17 p8=16 | result=x
Time=305000 | p0=25 p1=24 p2=23 p3=22 p4=21 p5=20 p6=19 p7=18 p8=17 | result=x
Time=315000 | p0=26 p1=25 p2=24 p3=23 p4=22 p5=21 p6=20 p7=19 p8=18 | result=x
Time=325000 | p0=27 p1=26 p2=25 p3=24 p4=23 p5=22 p6=21 p7=20 p8=19 | result=x
Time=335000 | p0=28 p1=27 p2=26 p3=25 p4=24 p5=23 p6=22 p7=21 p8=20 | result=x
Time=345000 | p0=29 p1=28 p2=27 p3=26 p4=25 p5=24 p6=23 p7=22 p8=21 | result=x
Time=355000 | p0=30 p1=29 p2=28 p3=27 p4=26 p5=25 p6=24 p7=23 p8=22 | result=x
Time=365000 | p0=31 p1=30 p2=29 p3=28 p4=27 p5=26 p6=25 p7=24 p8=23 | result=x
Time=375000 | p0=32 p1=31 p2=30 p3=29 p4=28 p5=27 p6=26 p7=25 p8=24 | result=x
Time=385000 | p0=33 p1=32 p2=31 p3=30 p4=29 p5=28 p6=27 p7=26 p8=25 | result=x
Time=395000 | p0=34 p1=33 p2=32 p3=31 p4=30 p5=29 p6=28 p7=27 p8=26 | result=x
Time=405000 | p0=35 p1=34 p2=33 p3=32 p4=31 p5=30 p6=29 p7=28 p8=27 | result=x
Time=415000 | p0=36 p1=35 p2=34 p3=33 p4=32 p5=31 p6=30 p7=29 p8=28 | result=x
Time=425000 | p0=37 p1=36 p2=35 p3=34 p4=33 p5=32 p6=31 p7=30 p8=29 | result=x
Time=435000 | p0=38 p1=37 p2=36 p3=35 p4=34 p5=33 p6=32 p7=31 p8=30 | result=x
Time=445000 | p0=39 p1=38 p2=37 p3=36 p4=35 p5=34 p6=33 p7=32 p8=31 | result=x
Time=455000 | p0=40 p1=39 p2=38 p3=37 p4=36 p5=35 p6=34 p7=33 p8=32 | result=x
Time=465000 | p0=41 p1=40 p2=39 p3=38 p4=37 p5=36 p6=35 p7=34 p8=33 | result=x
Time=475000 | p0=42 p1=41 p2=40 p3=39 p4=38 p5=37 p6=36 p7=35 p8=34 | result=x
Time=485000 | p0=43 p1=42 p2=41 p3=40 p4=39 p5=38 p6=37 p7=36 p8=35 | result=x
Time=495000 | p0=44 p1=43 p2=42 p3=41 p4=40 p5=39 p6=38 p7=37 p8=36 | result=x
Time=505000 | p0=45 p1=44 p2=43 p3=42 p4=41 p5=40 p6=39 p7=38 p8=37 | result=x
Time=515000 | p0=46 p1=45 p2=44 p3=43 p4=42 p5=41 p6=40 p7=39 p8=38 | result=x
Time=525000 | p0=47 p1=46 p2=45 p3=44 p4=43 p5=42 p6=41 p7=40 p8=39 | result=x
Time=535000 | p0=48 p1=47 p2=46 p3=45 p4=44 p5=43 p6=42 p7=41 p8=40 | result=x
Time=545000 | p0=49 p1=48 p2=47 p3=46 p4=45 p5=44 p6=43 p7=42 p8=41 | result=x
Time=555000 | p0=50 p1=49 p2=48 p3=47 p4=46 p5=45 p6=44 p7=43 p8=42 | result=x
Time=565000 | p0=51 p1=50 p2=49 p3=48 p4=47 p5=46 p6=45 p7=44 p8=43 | result=x
Time=575000 | p0=52 p1=51 p2=50 p3=49 p4=48 p5=47 p6=46 p7=45 p8=44 | result=x
Time=585000 | p0=53 p1=52 p2=51 p3=50 p4=49 p5=48 p6=47 p7=46 p8=45 | result=x
Time=595000 | p0=54 p1=53 p2=52 p3=51 p4=50 p5=49 p6=48 p7=47 p8=46 | result=x
Time=605000 | p0=55 p1=54 p2=53 p3=52 p4=51 p5=50 p6=49 p7=48 p8=47 | result=x
Time=615000 | p0=56 p1=55 p2=54 p3=53 p4=52 p5=51 p6=50 p7=49 p8=48 | result=x
Time=625000 | p0=57 p1=56 p2=55 p3=54 p4=53 p5=52 p6=51 p7=50 p8=49 | result=x
Time=635000 | p0=58 p1=57 p2=56 p3=55 p4=54 p5=53 p6=52 p7=51 p8=50 | result=x
Time=645000 | p0=59 p1=58 p2=57 p3=56 p4=55 p5=54 p6=53 p7=52 p8=51 | result=x
Time=655000 | p0=60 p1=59 p2=58 p3=57 p4=56 p5=55 p6=54 p7=53 p8=52 | result=x
Time=665000 | p0=61 p1=60 p2=59 p3=58 p4=57 p5=56 p6=55 p7=54 p8=53 | result=x
Time=675000 | p0=62 p1=61 p2=60 p3=59 p4=58 p5=57 p6=56 p7=55 p8=54 | result=x
Time=685000 | p0=63 p1=62 p2=61 p3=60 p4=59 p5=58 p6=57 p7=56 p8=55 | result=x
Time=695000 | p0=64 p1=63 p2=62 p3=61 p4=60 p5=59 p6=58 p7=57 p8=56 | result=x
Time=705000 | p0=65 p1=64 p2=63 p3=62 p4=61 p5=60 p6=59 p7=58 p8=57 | result=x
Time=715000 | p0=66 p1=65 p2=64 p3=63 p4=62 p5=61 p6=60 p7=59 p8=58 | result=x
Time=725000 | p0=67 p1=66 p2=65 p3=64 p4=63 p5=62 p6=61 p7=60 p8=59 | result=x
Time=735000 | p0=68 p1=67 p2=66 p3=65 p4=64 p5=63 p6=62 p7=61 p8=60 | result=x
Time=745000 | p0=69 p1=68 p2=67 p3=66 p4=65 p5=64 p6=63 p7=62 p8=61 | result=x
Time=755000 | p0=70 p1=69 p2=68 p3=67 p4=66 p5=65 p6=64 p7=63 p8=62 | result=x
Time=765000 | p0=71 p1=70 p2=69 p3=68 p4=67 p5=66 p6=65 p7=64 p8=63 | result=x
Time=775000 | p0=72 p1=71 p2=70 p3=69 p4=68 p5=67 p6=66 p7=65 p8=64 | result=x
Time=785000 | p0=73 p1=72 p2=71 p3=70 p4=69 p5=68 p6=67 p7=66 p8=65 | result=x
Time=795000 | p0=74 p1=73 p2=72 p3=71 p4=70 p5=69 p6=68 p7=67 p8=66 | result=x
Time=805000 | p0=75 p1=74 p2=73 p3=72 p4=71 p5=70 p6=69 p7=68 p8=67 | result=x
Time=815000 | p0=76 p1=75 p2=74 p3=73 p4=72 p5=71 p6=70 p7=69 p8=68 | result=x
Time=825000 | p0=77 p1=76 p2=75 p3=74 p4=73 p5=72 p6=71 p7=70 p8=69 | result=x
Time=835000 | p0=78 p1=77 p2=76 p3=75 p4=74 p5=73 p6=72 p7=71 p8=70 | result=x
Time=845000 | p0=79 p1=78 p2=77 p3=76 p4=75 p5=74 p6=73 p7=72 p8=71 | result=x
Time=855000 | p0=80 p1=79 p2=78 p3=77 p4=76 p5=75 p6=74 p7=73 p8=72 | result=x
Time=865000 | p0=81 p1=80 p2=79 p3=78 p4=77 p5=76 p6=75 p7=74 p8=73 | result=x
Time=875000 | p0=82 p1=81 p2=80 p3=79 p4=78 p5=77 p6=76 p7=75 p8=74 | result=x
Time=885000 | p0=83 p1=82 p2=81 p3=80 p4=79 p5=78 p6=77 p7=76 p8=75 | result=x
Time=895000 | p0=84 p1=83 p2=82 p3=81 p4=80 p5=79 p6=78 p7=77 p8=76 | result=x
Time=905000 | p0=85 p1=84 p2=83 p3=82 p4=81 p5=80 p6=79 p7=78 p8=77 | result=x
Time=915000 | p0=86 p1=85 p2=84 p3=83 p4=82 p5=81 p6=80 p7=79 p8=78 | result=x
Time=925000 | p0=87 p1=86 p2=85 p3=84 p4=83 p5=82 p6=81 p7=80 p8=79 | result=x
Time=935000 | p0=88 p1=87 p2=86 p3=85 p4=84 p5=83 p6=82 p7=81 p8=80 | result=x
Time=945000 | p0=89 p1=88 p2=87 p3=86 p4=85 p5=84 p6=83 p7=82 p8=81 | result=x
Time=955000 | p0=90 p1=89 p2=88 p3=87 p4=86 p5=85 p6=84 p7=83 p8=82 | result=x
Time=965000 | p0=91 p1=90 p2=89 p3=88 p4=87 p5=86 p6=85 p7=84 p8=83 | result=x
Time=975000 | p0=92 p1=91 p2=90 p3=89 p4=88 p5=87 p6=86 p7=85 p8=84 | result=x
Time=985000 | p0=93 p1=92 p2=91 p3=90 p4=89 p5=88 p6=87 p7=86 p8=85 | result=x
Time=995000 | p0=94 p1=93 p2=92 p3=91 p4=90 p5=89 p6=88 p7=87 p8=86 | result=x
